{
    "entries": [
        {
            "description": "Voir SWADE p.30",
            "id": "Academics",
            "name": "Éducation"
        },
        {
            "description": "Voir SWADE p.29",
            "id": "Athletics",
            "name": "Athlétisme"
        },
        {
            "description": "Voir SWADE p.35",
            "id": "Battle",
            "name": "Stratégie"
        },
        {
            "description": "Voir SWADE p.33",
            "id": "Boating",
            "name": "Navigation"
        },
        {
            "description": "Voir SWADE p.30",
            "id": "Common Knowledge",
            "name": "Culture générale"
        },
        {
            "description": "Voir SWADE p.29",
            "id": "Driving",
            "name": "Conduite"
        },
        {
            "description": "Voir SWADE p.31",
            "id": "Electronics",
            "name": "Électronique"
        },
        {
            "description": "Voir SWADE p.31",
            "id": "Faith",
            "name": "Foi"
        },
        {
            "description": "Voir SWADE p.29",
            "id": "Fighting",
            "name": "Combat"
        },
        {
            "description": "Voir SWADE p.31",
            "id": "Focus",
            "name": "Focus"
        },
        {
            "description": "Voir SWADE p.31",
            "id": "Gambling",
            "name": "Jeu"
        },
        {
            "description": "Voir SWADE p.31",
            "id": "Hacking",
            "name": "Informatique"
        },
        {
            "description": "Voir SWADE p.35",
            "id": "Healing",
            "name": "Soins"
        },
        {
            "description": "Voir SWADE p.31",
            "id": "Intimidation",
            "name": "Intimidation"
        },
        {
            "description": "Voir SWADE p.31",
            "id": "Language",
            "name": "Langue"
        },
        {
            "description": "Voir SWADE p.33",
            "id": "Notice",
            "name": "Perception"
        },
        {
            "description": "Voir SWADE p.33",
            "id": "Occult",
            "name": "Occultisme"
        },
        {
            "description": "Voir SWADE p.29",
            "id": "Performance",
            "name": "Performance"
        },
        {
            "description": "Voir SWADE p.34",
            "id": "Persuasion",
            "name": "Persuasion"
        },
        {
            "description": "Voir SWADE p.34",
            "id": "Piloting",
            "name": "Pilotage"
        },
        {
            "description": "Voir SWADE p.34",
            "id": "Psionics",
            "name": "Psioniques"
        },
        {
            "description": "Voir SWADE p.35",
            "id": "Repair",
            "name": "Réparation"
        },
        {
            "description": "Voir SWADE p.34",
            "id": "Research",
            "name": "Recherche"
        },
        {
            "description": "Voir SWADE p.31",
            "id": "Riding",
            "name": "Équitation"
        },
        {
            "description": "Voir SWADE p.35",
            "id": "Science",
            "name": "Sciences"
        },
        {
            "description": "Voir SWADE p.36",
            "id": "Shooting",
            "name": "Tir"
        },
        {
            "description": "Voir SWADE p.33",
            "id": "Spellcasting",
            "name": "Magie"
        },
        {
            "description": "Voir SWADE p.30",
            "id": "Stealth",
            "name": "Discrétion"
        },
        {
            "description": "Voir SWADE p.36",
            "id": "Survival",
            "name": "Survie"
        },
        {
            "description": "Voir SWADE p.34",
            "id": "Taunt",
            "name": "Provocation"
        },
        {
            "description": "Voir SWADE p.35",
            "id": "Thievery",
            "name": "Subterfuge"
        },
        {
            "description": "page inconnue",
            "id": "Untrained",
            "name": "Tentative sans compétence"
        },
        {
            "description": "Voir SWADE p.35",
            "id": "Weird Science",
            "name": "Science étrange"
        }
    ],
    "label": "SWADE Compétences",
    "mapping": {
        "description": "data.description"
    }
}