{
    "entries": [
        {
            "description": "Voir SWADE p.49",
            "id": "Ace",
            "name": "As"
        },
        {
            "description": "Voir SWADE p.49",
            "id": "Acrobat",
            "name": "Acrobate"
        },
        {
            "description": "Voir SWADE p.41",
            "id": "Alertness",
            "name": "Vigilant"
        },
        {
            "description": "Voir SWADE p.37",
            "id": "Ambidextrous",
            "name": "Ambidextre"
        },
        {
            "description": "Voir SWADE p.148",
            "id": "Arcane Background (Gifted)",
            "name": "Arcanes (Don)"
        },
        {
            "description": "Voir SWADE p.148",
            "id": "Arcane Background (Magic)",
            "name": "Arcanes (Magie)"
        },
        {
            "description": "Voir SWADE p.148",
            "id": "Arcane Background (Miracles)",
            "name": "Arcanes (Miracles)"
        },
        {
            "description": "Voir SWADE p.148",
            "id": "Arcane Background (Psionics)",
            "name": "Arcanes (Psionique)"
        },
        {
            "description": "Voir SWADE p.148",
            "id": "Arcane Background (Weird Science)",
            "name": "Arcanes (Science étrange)"
        },
        {
            "description": "Voir SWADE p.39",
            "id": "Arcane Resistance",
            "name": "Résistance aux arcanes"
        },
        {
            "description": "Voir SWADE p.37",
            "id": "Aristocrat",
            "name": "Aristocrate"
        },
        {
            "description": "Voir SWADE p.46",
            "id": "Artificer",
            "name": "Artificier"
        },
        {
            "description": "Voir SWADE p.49",
            "id": "Assassin",
            "name": "Assassin"
        },
        {
            "description": "Voir SWADE p.40",
            "id": "Attractive",
            "name": "Séduisant"
        },
        {
            "description": "Voir SWADE p.48",
            "id": "Beast Bond",
            "name": "Lien animal"
        },
        {
            "description": "Voir SWADE p.48",
            "id": "Beast Master",
            "name": "Maître des bêtes"
        },
        {
            "description": "Voir SWADE p.38",
            "id": "Berserk",
            "name": "Enragé"
        },
        {
            "description": "Voir SWADE p.41",
            "id": "Block",
            "name": "Blocage"
        },
        {
            "description": "Voir SWADE p.52",
            "id": "Bolster",
            "name": "Pique Revigorante"
        },
        {
            "description": "Voir SWADE p.37",
            "id": "Brave",
            "name": "Brave"
        },
        {
            "description": "Voir SWADE p.41",
            "id": "Brawler",
            "name": "Bagarreur"
        },
        {
            "description": "Voir SWADE p.38",
            "id": "Brawny",
            "name": "Costaud"
        },
        {
            "description": "Voir SWADE p.41",
            "id": "Bruiser",
            "name": "Cogneur"
        },
        {
            "description": "Voir SWADE p.37",
            "id": "Brute",
            "name": "Brute"
        },
        {
            "description": "Voir SWADE p.42",
            "id": "Calculating",
            "name": "Calculateur"
        },
        {
            "description": "Voir SWADE p.48",
            "id": "Champion",
            "name": "Champion"
        },
        {
            "description": "Voir SWADE p.46",
            "id": "Channeling",
            "name": "Canalisation"
        },
        {
            "description": "Voir SWADE p.38",
            "id": "Charismatic",
            "name": "Charismatique"
        },
        {
            "description": "Voir SWADE p.48",
            "id": "Chi",
            "name": "Chi"
        },
        {
            "description": "Voir SWADE p.49",
            "id": "Combat Acrobat",
            "name": "Acrobate de combat"
        },
        {
            "description": "Voir SWADE p.42",
            "id": "Combat Reflexes",
            "name": "Combatif"
        },
        {
            "description": "Voir SWADE p.45",
            "id": "Command",
            "name": "Commandement"
        },
        {
            "description": "Voir SWADE p.45",
            "id": "Command Presence",
            "name": "Grande aura de commandement"
        },
        {
            "description": "Voir SWADE p.52",
            "id": "Common Bond",
            "name": "Lien mutuel"
        },
        {
            "description": "Voir SWADE p.46",
            "id": "Concentration",
            "name": "Concentration"
        },
        {
            "description": "Voir SWADE p.51",
            "id": "Connections",
            "name": "Contacts"
        },
        {
            "description": "Voir SWADE p.42",
            "id": "Counterattack",
            "name": "Contre-attaque"
        },
        {
            "description": "Voir SWADE p.49",
            "id": "Danger Sense",
            "name": "Sixième sens"
        },
        {
            "description": "Voir SWADE p.42",
            "id": "Dead Shot",
            "name": "Dans le mille !"
        },
        {
            "description": "Voir SWADE p.43",
            "id": "Dodge",
            "name": "Esquive"
        },
        {
            "description": "Voir SWADE p.42",
            "id": "Double Tap",
            "name": "Double détente"
        },
        {
            "description": "Voir SWADE p.39",
            "id": "Elan",
            "name": "Panache"
        },
        {
            "description": "Voir SWADE p.52",
            "id": "Expert",
            "name": "Expert"
        },
        {
            "description": "Voir SWADE p.46",
            "id": "Extra Effort",
            "name": "Effort supplémentaire"
        },
        {
            "description": "Voir SWADE p.43",
            "id": "Extraction",
            "name": "Extraction"
        },
        {
            "description": "Voir SWADE p.38",
            "id": "Fame",
            "name": "Notoriété"
        },
        {
            "description": "Voir SWADE p.39",
            "id": "Famous",
            "name": "Célébrité"
        },
        {
            "description": "Voir SWADE p.38",
            "id": "Fast Healer",
            "name": "Guérison rapide"
        },
        {
            "description": "Voir SWADE p.43",
            "id": "Feint",
            "name": "Feinte"
        },
        {
            "description": "Voir SWADE p.45",
            "id": "Fervor",
            "name": "Ferveur"
        },
        {
            "description": "Voir SWADE p.40",
            "id": "Filthy Rich",
            "name": "Très riche"
        },
        {
            "description": "Voir SWADE p.43",
            "id": "First Strike",
            "name": "Frappe éclair"
        },
        {
            "description": "Voir SWADE p.40",
            "id": "Fleet-Footed",
            "name": "Véloce"
        },
        {
            "description": "Voir SWADE p.53",
            "id": "Followers",
            "name": "Suivants"
        },
        {
            "description": "Voir SWADE p.42",
            "id": "Free Runner",
            "name": "Coureur"
        },
        {
            "description": "Voir SWADE p.43",
            "id": "Frenzy",
            "name": "Frénésie"
        },
        {
            "description": "Voir SWADE p.46",
            "id": "Gadgeteer",
            "name": "Bricoleur de génie"
        },
        {
            "description": "Voir SWADE p.44",
            "id": "Giant Killer",
            "name": "Tueur de géant"
        },
        {
            "description": "Voir SWADE p.38",
            "id": "Great Luck",
            "name": "Très chanceux"
        },
        {
            "description": "Voir SWADE p.43",
            "id": "Hard To Kill",
            "name": "Increvable"
        },
        {
            "description": "Voir SWADE p.43",
            "id": "Harder To Kill",
            "name": "Trompe-la-mort"
        },
        {
            "description": "Voir SWADE p.48",
            "id": "Healer",
            "name": "Guérisseur"
        },
        {
            "description": "Voir SWADE p.45",
            "id": "Hold the Line!",
            "name": "Serrez les rangs !"
        },
        {
            "description": "Voir SWADE p.47",
            "id": "Holy/Unholy Warrior",
            "name": "Guerrier saint/impie"
        },
        {
            "description": "Voir SWADE p.52",
            "id": "Humiliate",
            "name": "Humiliation"
        },
        {
            "description": "Voir SWADE p.39",
            "id": "Improved Arcane Resistance",
            "name": "Grande résistance aux arcanes"
        },
        {
            "description": "Voir SWADE p.41",
            "id": "Improved Block",
            "name": "Grand blocage"
        },
        {
            "description": "Voir SWADE p.42",
            "id": "Improved Counterattack",
            "name": "Grande Contre-attaque"
        },
        {
            "description": "Voir SWADE p.43",
            "id": "Improved Dodge",
            "name": "Grande esquive"
        },
        {
            "description": "Voir SWADE p.43",
            "id": "Improved Extraction",
            "name": "Grande extraction"
        },
        {
            "description": "Voir SWADE p.43",
            "id": "Improved First Strike",
            "name": "Frappe froudroyante"
        },
        {
            "description": "Voir SWADE p.43",
            "id": "Improved Frenzy",
            "name": "Frénésie suprême"
        },
        {
            "description": "Voir SWADE p.44",
            "id": "Improved Level Headed",
            "name": "Sang-froid"
        },
        {
            "description": "Voir SWADE p.44",
            "id": "Improved Nerves of Steel",
            "name": "Nerfs d'acier trempé"
        },
        {
            "description": "Voir SWADE p.44",
            "id": "Improved Rapid Fire",
            "name": "Tir très rapide"
        },
        {
            "description": "Voir SWADE p.47",
            "id": "Improved Rapid Recharge",
            "name": "Grande source de pouvoir"
        },
        {
            "description": "Voir SWADE p.41",
            "id": "Improved Sweep",
            "name": "Grand balayage"
        },
        {
            "description": "Voir SWADE p.41",
            "id": "Improved Trademark Weapon",
            "name": "Arme fétiche adorée"
        },
        {
            "description": "Voir SWADE p.43",
            "id": "Improvisational Fighter",
            "name": "Improvisation martiale"
        },
        {
            "description": "Voir SWADE p.45",
            "id": "Inspire",
            "name": "Inspiration"
        },
        {
            "description": "Voir SWADE p.50",
            "id": "Investigator",
            "name": "Investigateur"
        },
        {
            "description": "Voir SWADE p.44",
            "id": "Iron Jaw",
            "name": "Mâchoire d'acier"
        },
        {
            "description": "Voir SWADE p.52",
            "id": "Iron Will",
            "name": "Volonté de fer"
        },
        {
            "description": "Voir SWADE p.51",
            "id": "Jack-Of-All-Trades",
            "name": "Touche-à-tout"
        },
        {
            "description": "Voir SWADE p.44",
            "id": "Killer Instinct",
            "name": "Instinct de tueur"
        },
        {
            "description": "Voir SWADE p.44",
            "id": "Level Headed",
            "name": "Tête froide"
        },
        {
            "description": "Voir SWADE p.38",
            "id": "Linguist",
            "name": "Linguiste"
        },
        {
            "description": "Voir SWADE p.48",
            "id": "Liquid Courage",
            "name": "Courage liquide"
        },
        {
            "description": "Voir SWADE p.38",
            "id": "Luck",
            "name": "Chanceux"
        },
        {
            "description": "Voir SWADE p.44",
            "id": "Marksman",
            "name": "Tireur d'élite"
        },
        {
            "description": "Voir SWADE p.41",
            "id": "Martial Artist",
            "name": "Arts martiaux"
        },
        {
            "description": "Voir SWADE p.41",
            "id": "Martial Warrior",
            "name": "Maîtrise des arts martiaux"
        },
        {
            "description": "Voir SWADE p.53",
            "id": "Master",
            "name": "Maître"
        },
        {
            "description": "Voir SWADE p.53",
            "id": "Master of Arms",
            "name": "Maître d'armes légendaire"
        },
        {
            "description": "Voir SWADE p.46",
            "id": "Master Tactician",
            "name": "Maître tacticien"
        },
        {
            "description": "Voir SWADE p.49",
            "id": "Mcgyver",
            "name": "Débrouillard"
        },
        {
            "description": "Voir SWADE p.52",
            "id": "Menacing",
            "name": "Menaçant"
        },
        {
            "description": "Voir SWADE p.47",
            "id": "Mentalist",
            "name": "Mentaliste"
        },
        {
            "description": "Voir SWADE p.42",
            "id": "Mighty Blow",
            "name": "Coup puissant"
        },
        {
            "description": "Voir SWADE p.49",
            "id": "Mr Fix It",
            "name": "Bidouilleur"
        },
        {
            "description": "Voir SWADE p.45",
            "id": "Natural Leader",
            "name": "Leader naturel"
        },
        {
            "description": "Voir SWADE p.44",
            "id": "Nerves of Steel",
            "name": "Nerfs d'acier"
        },
        {
            "description": "Voir SWADE p.47",
            "id": "New Powers",
            "name": "Nouveaux pouvoirs"
        },
        {
            "description": "Voir SWADE p.44",
            "id": "No Mercy",
            "name": "Sans pitié"
        },
        {
            "description": "Voir SWADE p.47",
            "id": "Power Points",
            "name": "Points de pouvoir"
        },
        {
            "description": "Voir SWADE p.46",
            "id": "Power Surge",
            "name": "Afflux de pouvoir"
        },
        {
            "description": "Voir SWADE p.53",
            "id": "Professional",
            "name": "Professionnel"
        },
        {
            "description": "Voir SWADE p.52",
            "id": "Provoke",
            "name": "Provocateur"
        },
        {
            "description": "Voir SWADE p.40",
            "id": "Quick",
            "name": "Vif"
        },
        {
            "description": "Voir SWADE p.51",
            "id": "Rabble-Rouser",
            "name": "Agitateur"
        },
        {
            "description": "Voir SWADE p.44",
            "id": "Rapid Fire",
            "name": "Tir rapide"
        },
        {
            "description": "Voir SWADE p.47",
            "id": "Rapid Recharge",
            "name": "Source de pouvoir"
        },
        {
            "description": "Voir SWADE p.52",
            "id": "Reliable",
            "name": "Fiable"
        },
        {
            "description": "Voir SWADE p.52",
            "id": "Retort",
            "name": "Réplique acerbe"
        },
        {
            "description": "Voir SWADE p.40",
            "id": "Rich",
            "name": "Riche"
        },
        {
            "description": "Voir SWADE p.44",
            "id": "Rock and Roll!",
            "name": "Rock'n roll!"
        },
        {
            "description": "Voir SWADE p.49",
            "id": "Scavenger",
            "name": "Recycleur"
        },
        {
            "description": "Voir SWADE p.50",
            "id": "Scholar",
            "name": "Érudit"
        },
        {
            "description": "Voir SWADE p.53",
            "id": "Sidekick",
            "name": "Acolyte"
        },
        {
            "description": "Voir SWADE p.51",
            "id": "Soldier",
            "name": "Soldat"
        },
        {
            "description": "Voir SWADE p.46",
            "id": "Soul Drain",
            "name": "Drain de l'âme"
        },
        {
            "description": "Voir SWADE p.44",
            "id": "Steady Hands",
            "name": "Poigne ferme"
        },
        {
            "description": "Voir SWADE p.52",
            "id": "Streetwise",
            "name": "Réseau"
        },
        {
            "description": "Voir SWADE p.52",
            "id": "Strong Willed",
            "name": "Déterminé"
        },
        {
            "description": "Voir SWADE p.41",
            "id": "Sweep",
            "name": "Balayage"
        },
        {
            "description": "Voir SWADE p.45",
            "id": "Tactician",
            "name": "Tacticien"
        },
        {
            "description": "Voir SWADE p.51",
            "id": "Thief",
            "name": "Voleur"
        },
        {
            "description": "Voir SWADE p.53",
            "id": "Tough As Nails",
            "name": "Endurci"
        },
        {
            "description": "Voir SWADE p.53",
            "id": "Tougher Than Nails",
            "name": "Coriace"
        },
        {
            "description": "Voir SWADE p.41",
            "id": "Trademark Weapon",
            "name": "Arme fétiche"
        },
        {
            "description": "Voir SWADE p.42",
            "id": "Two-Fisted",
            "name": "Combat à deux armes"
        },
        {
            "description": "Voir SWADE p.42",
            "id": "Two-Gun Kid",
            "name": "Double flingue"
        },
        {
            "description": "Voir SWADE p.40",
            "id": "Very Attractive",
            "name": "Très séduisant"
        },
        {
            "description": "Voir SWADE p.53",
            "id": "Weapon Master",
            "name": "Maître d'armes"
        },
        {
            "description": "Voir SWADE p.47",
            "id": "Wizard",
            "name": "Mage"
        },
        {
            "description": "Voir SWADE p.50",
            "id": "Woodsman",
            "name": "Forestier"
        },
        {
            "description": "Voir SWADE p.51",
            "id": "Work the Crowd",
            "name": "Chauffeur de foule"
        },
        {
            "description": "Voir SWADE p.51",
            "id": "Work The Room",
            "name": "Chauffeur de salle"
        }
    ],
    "label": "SWADE Atouts",
    "mapping": {
        "description": "data.description"
    }
}